﻿{
	announcementDirectorypath: "C:\\announcements",
	timeline: [
		{
			year: 2015,
			imagePath: "Images\\image2015.jpg"
		},
		{
			year: 2016,
			imagePath: "Images\\image2016.jpg"
		},
		{
			year: 2017,
			imagePath: "Images\\image2017.jpg"
		},
		{
			year: 2018,
			imagePath: "Images\\image2018.jpg"
		}
	]
}